{"count":64,"next":"https://pokeapi.co/api/v2/berry/?offset=20&limit=20","previous":null,"results":[{"name":"cheri","url":"https://pokeapi.co/api/v2/berry/1/"},{"name":"chesto","url":"https://pokeapi.co/api/v2/berry/2/"},{"name":"pecha","url":"https://pokeapi.co/api/v2/berry/3/"},{"name":"rawst","url":"https://pokeapi.co/api/v2/berry/4/"},{"name":"aspear","url":"https://pokeapi.co/api/v2/berry/5/"},{"name":"leppa","url":"https://pokeapi.co/api/v2/berry/6/"},{"name":"oran","url":"https://pokeapi.co/api/v2/berry/7/"},{"name":"persim","url":"https://pokeapi.co/api/v2/berry/8/"},{"name":"lum","url":"https://pokeapi.co/api/v2/berry/9/"},{"name":"sitrus","url":"https://pokeapi.co/api/v2/berry/10/"},{"name":"figy","url":"https://pokeapi.co/api/v2/berry/11/"},{"name":"wiki","url":"https://pokeapi.co/api/v2/berry/12/"},{"name":"mago","url":"https://pokeapi.co/api/v2/berry/13/"},{"name":"aguav","url":"https://pokeapi.co/api/v2/berry/14/"},{"name":"iapapa","url":"https://pokeapi.co/api/v2/berry/15/"},{"name":"razz","url":"https://pokeapi.co/api/v2/berry/16/"},{"name":"bluk","url":"https://pokeapi.co/api/v2/berry/17/"},{"name":"nanab","url":"https://pokeapi.co/api/v2/berry/18/"},{"name":"wepear","url":"https://pokeapi.co/api/v2/berry/19/"},{"name":"pinap","url":"https://pokeapi.co/api/v2/berry/20/"}]}
{"berries":[{"berry":{"name":"rowap","url":"https://pokeapi.co/api/v2/berry/64/"},"potency":10},{"berry":{"name":"leppa","url":"https://pokeapi.co/api/v2/berry/6/"},"potency":10},{"berry":{"name":"oran","url":"https://pokeapi.co/api/v2/berry/7/"},"potency":10},{"berry":{"name":"persim","url":"https://pokeapi.co/api/v2/berry/8/"},"potency":10},{"berry":{"name":"lum","url":"https://pokeapi.co/api/v2/berry/9/"},"potency":10},{"berry":{"name":"razz","url":"https://pokeapi.co/api/v2/berry/16/"},"potency":10},{"berry":{"name":"pinap","url":"https://pokeapi.co/api/v2/berry/20/"},"potency":10},{"berry":{"name":"pomeg","url":"https://pokeapi.co/api/v2/berry/21/"},"potency":10},{"berry":{"name":"qualot","url":"https://pokeapi.co/api/v2/berry/23/"},"potency":10},{"berry":{"name":"hondew","url":"https://pokeapi.co/api/v2/berry/24/"},"potency":10},{"berry":{"name":"nomel","url":"https://pokeapi.co/api/v2/berry/30/"},"potency":10},{"berry":{"name":"belue","url":"https://pokeapi.co/api/v2/berry/35/"},"potency":10},{"berry":{"name":"rindo","url":"https://pokeapi.co/api/v2/berry/39/"},"potency":10},{"berry":{"name":"shuca","url":"https://pokeapi.co/api/v2/berry/43/"},"potency":10},{"berry":{"name":"charti","url":"https://pokeapi.co/api/v2/berry/47/"},"potency":10},{"berry":{"name":"apicot","url":"https://pokeapi.co/api/v2/berry/57/"},"potency":10},{"berry":{"name":"cheri","url":"https://pokeapi.co/api/v2/berry/1/"},"potency":10},{"berry":{"name":"chople","url":"https://pokeapi.co/api/v2/berry/41/"},"potency":15},{"berry":{"name":"figy","url":"https://pokeapi.co/api/v2/berry/11/"},"potency":15},{"berry":{"name":"occa","url":"https://pokeapi.co/api/v2/berry/36/"},"potency":15},{"berry":{"name":"tamato","url":"https://pokeapi.co/api/v2/berry/26/"},"potency":20},{"berry":{"name":"tanga","url":"https://pokeapi.co/api/v2/berry/46/"},"potency":20},{"berry":{"name":"babiri","url":"https://pokeapi.co/api/v2/berry/51/"},"potency":25},{"berry":{"name":"starf","url":"https://pokeapi.co/api/v2/berry/59/"},"potency":30},{"berry":{"name":"liechi","url":"https://pokeapi.co/api/v2/berry/53/"},"potency":30},{"berry":{"name":"spelon","url":"https://pokeapi.co/api/v2/berry/31/"},"potency":30},{"berry":{"name":"petaya","url":"https://pokeapi.co/api/v2/berry/56/"},"potency":30},{"berry":{"name":"lansat","url":"https://pokeapi.co/api/v2/berry/58/"},"potency":30},{"berry":{"name":"enigma","url":"https://pokeapi.co/api/v2/berry/60/"},"potency":40}],"contest_type":{"name":"cool","url":"https://pokeapi.co/api/v2/contest-type/1/"},"id":1,"name":"spicy","names":[{"language":{"name":"fr","url":"https://pokeapi.co/api/v2/language/5/"},"name":"Épicé"},{"language":{"name":"en","url":"https://pokeapi.co/api/v2/language/9/"},"name":"Spicy"}]}





  {"count":419,"next":"https://pokeapi.co/api/v2/evolution-chain/?offset=40&limit=20","previous":"https://pokeapi.co/api/v2/evolution-chain/?offset=0&limit=20","results":[{"url":"https://pokeapi.co/api/v2/evolution-chain/21/"},{"url":"https://pokeapi.co/api/v2/evolution-chain/22/"},{"url":"https://pokeapi.co/api/v2/evolution-chain/23/"},{"url":"https://pokeapi.co/api/v2/evolution-chain/24/"},{"url":"https://pokeapi.co/api/v2/evolution-chain/25/"},{"url":"https://pokeapi.co/api/v2/evolution-chain/26/"},{"url":"https://pokeapi.co/api/v2/evolution-chain/27/"},{"url":"https://pokeapi.co/api/v2/evolution-chain/28/"},{"url":"https://pokeapi.co/api/v2/evolution-chain/29/"},{"url":"https://pokeapi.co/api/v2/evolution-chain/30/"},{"url":"https://pokeapi.co/api/v2/evolution-chain/31/"},{"url":"https://pokeapi.co/api/v2/evolution-chain/32/"},{"url":"https://pokeapi.co/api/v2/evolution-chain/33/"},{"url":"https://pokeapi.co/api/v2/evolution-chain/34/"},{"url":"https://pokeapi.co/api/v2/evolution-chain/35/"},{"url":"https://pokeapi.co/api/v2/evolution-chain/36/"},{"url":"https://pokeapi.co/api/v2/evolution-chain/37/"},{"url":"https://pokeapi.co/api/v2/evolution-chain/38/"},{"url":"https://pokeapi.co/api/v2/evolution-chain/39/"},{"url":"https://pokeapi.co/api/v2/evolution-chain/40/"}]}